{
<<<<<<< HEAD
    "server_address":"http://werty12121.redirectme.net",
    "server_port":665,
    "email":"amazing.game.tic.tac.toe@gmail.com",
    "email_login":"amazing.game.tic.tac.toe@gmail.com",
    "email_password":"zaq1@WSX"
=======
    "server_address":"",
    "server_port":,
    "email":"",
    "email_login":"",
    "email_password":""
>>>>>>> 0ae204535d41e5cddf2fef719b3cc25c65222181
}

